{
    "extension_description": {
        "message": "Подмяна на User-Agent на браузъра"
    },
    "options_entries_caption": {
        "message": "User-Agent записи"
    },
    "popup_item_options": {
        "message": "Предпочитания…"
    },
    "icon_title_enabled": {
        "message": "е включен"
    },
    "icon_title_disabled": {
        "message": "е изключен"
    },
    "options_entries_reset": {
        "message": "Нулиране на стойностите по подразбиране",
        "description": "Options page link for loading the entries defaults"
    },
    "options_entries_reset_undo_text": {
        "message": "Стойностите по подразбиране са възстановени",
        "description": "Text of popup that is shown after the reset link has been clicked"
    },
    "options_entries_reset_undo_button": {
        "message": "Отмяна на възстановяването",
        "description": "Label of button for undoing a reset (displayed below the text that asserts that the options have just been reset)"
    },
    "options_entries_switch_text": {
        "message": "Превключване към текстов режим",
        "description": "Options page link for switching from table to text mode"
    },
    "options_entries_switch_table": {
        "message": "Преминете към режим Таблица",
        "description": "Options page link for switching from text to table mode"
    },
    "options_entries_heading_label": {
        "message": "Етикет",
        "description": "Options page table editor heading for the column with user-facing User-Agent-String labels"
    },
    "options_entries_heading_string": {
        "message": "Нижка",
        "description": "Options page table editor heading for the column with the actual server-reported User-Agent-Strings"
    },
    "options_entries_heading_category": {
        "message": "Категория",
        "description": "Options page table editor heading for the column with general category of the given User-Agent-String"
    },
    "useragent_category_desktop": {
        "message": "Бюро",
        "description": "Default category label for browsers on desktop devices"
    },
    "useragent_category_mobile": {
        "message": "Мобилен",
        "description": "Default category label for browsers on mobile devices"
    },
    "useragent_category_bot": {
        "message": "Бот",
        "description": "Default category label for search engine bots"
    },
    "useragent_category_other": {
        "message": "Други",
        "description": "Default category label for unclassified client software"
    },
    "icon_title_random": {
        "message": "Случаен режим",
        "description": "Text displayed in the browser action icon tooltip when the User-Agent header is choosen at random"
    },
    "option_badge_text": {
        "message": "Показване на потребителски агент като текст на значка в иконата?",
        "description": "Text of checkbox option to show/hide the two to four letter abbreviations displayed ontop of the browser action icon"
    },
    "option_random_jitter": {
        "message": "Дисперсия на случаен режим",
        "description": "Text of numeric option (0-100) for setting by how many per-cent the random-interval value should (on avarage) be varied"
    },
    "icon_title_override_enabled": {
        "message": "Активирано от отмяна",
        "description": "Text displayed in the browser action icon tooltip when request processing is being done because of an override being set"
    },
    "icon_title_override_disabled": {
        "message": "Деактивирано от отмяна",
        "description": "Text displayed in the browser action icon tooltip when no request processing is being done because of an override being set"
    },
    "popup_item_override": {
        "message": "Замяна на домейн",
        "description": "Label of the checkbox that can be used to switch from setting the global User-Agent string to a per-site value"
    },
    "options_entries_heading_enabled": {
        "message": "Включено",
        "description": "Options page table editor heading for the column allowing to enabled or disable items"
    }
}
